Länge 10:
123456789000000000000000000000000000000

Länge 11:
1234567890111111111111

Länge 15:
123456789012345555555555555555555555555555555555555555555555555

Länge 20:
1234567890123456789000000000000000000

Länge 100:
123456789012345678901234567890123456789012345678901234567890123456789012345678901234567890123456789000000000000

12345678901234567890123456789012345678901234567890123456789012345678901234567890123456789012345678901234567890123456789012345678901234567899999999999999999999999999999999999999999999999999999999

1234567890123456789012345678901234567890123456789012345678901234567890123456789012345678901234567890122222222222222222222222222222222222222222222222222222222222222222222222222222222222222222222222222222222222222222222222222222222222222222222222222222222222222222222222222222222222
