^C:\USERS\SEBAS\DESKTOP\PC_REMOTE_CONTROL_SERVER_VS2017\PC_REMOTE_CONTROL_SERVER\ENGINE.CPP|C:\USERS\SEBAS\DESKTOP\PC_REMOTE_CONTROL_SERVER_VS2017\PC_REMOTE_CONTROL_SERVER\ERRORLOGGER.CPP|C:\USERS\SEBAS\DESKTOP\PC_REMOTE_CONTROL_SERVER_VS2017\PC_REMOTE_CONTROL_SERVER\HASHMAP.CPP|C:\USERS\SEBAS\DESKTOP\PC_REMOTE_CONTROL_SERVER_VS2017\PC_REMOTE_CONTROL_SERVER\KEYBOARDCLASS.CPP|C:\USERS\SEBAS\DESKTOP\PC_REMOTE_CONTROL_SERVER_VS2017\PC_REMOTE_CONTROL_SERVER\KEYBOARDEVENT.CPP|C:\USERS\SEBAS\DESKTOP\PC_REMOTE_CONTROL_SERVER_VS2017\PC_REMOTE_CONTROL_SERVER\NETWORK.CPP|C:\USERS\SEBAS\DESKTOP\PC_REMOTE_CONTROL_SERVER_VS2017\PC_REMOTE_CONTROL_SERVER\RENDERWINDOW.CPP|C:\USERS\SEBAS\DESKTOP\PC_REMOTE_CONTROL_SERVER_VS2017\PC_REMOTE_CONTROL_SERVER\SOURCE.CPP|C:\USERS\SEBAS\DESKTOP\PC_REMOTE_CONTROL_SERVER_VS2017\PC_REMOTE_CONTROL_SERVER\STRINGCONVERTER.CPP|C:\USERS\SEBAS\DESKTOP\PC_REMOTE_CONTROL_SERVER_VS2017\PC_REMOTE_CONTROL_SERVER\WINDOWCONTAINER.CPP
C:\USERS\SEBAS\DESKTOP\PC_REMOTE_CONTROL_SERVER_VS2017\PC_REMOTE_CONTROL_SERVER\X64\RELEASE\VC141.PDB
C:\USERS\SEBAS\DESKTOP\PC_REMOTE_CONTROL_SERVER_VS2017\PC_REMOTE_CONTROL_SERVER\X64\RELEASE\WINDOWCONTAINER.OBJ
C:\USERS\SEBAS\DESKTOP\PC_REMOTE_CONTROL_SERVER_VS2017\PC_REMOTE_CONTROL_SERVER\X64\RELEASE\STRINGCONVERTER.OBJ
C:\USERS\SEBAS\DESKTOP\PC_REMOTE_CONTROL_SERVER_VS2017\PC_REMOTE_CONTROL_SERVER\X64\RELEASE\SOURCE.OBJ
C:\USERS\SEBAS\DESKTOP\PC_REMOTE_CONTROL_SERVER_VS2017\PC_REMOTE_CONTROL_SERVER\X64\RELEASE\NETWORK.OBJ
C:\USERS\SEBAS\DESKTOP\PC_REMOTE_CONTROL_SERVER_VS2017\PC_REMOTE_CONTROL_SERVER\X64\RELEASE\KEYBOARDEVENT.OBJ
C:\USERS\SEBAS\DESKTOP\PC_REMOTE_CONTROL_SERVER_VS2017\PC_REMOTE_CONTROL_SERVER\X64\RELEASE\KEYBOARDCLASS.OBJ
C:\USERS\SEBAS\DESKTOP\PC_REMOTE_CONTROL_SERVER_VS2017\PC_REMOTE_CONTROL_SERVER\X64\RELEASE\HASHMAP.OBJ
C:\USERS\SEBAS\DESKTOP\PC_REMOTE_CONTROL_SERVER_VS2017\PC_REMOTE_CONTROL_SERVER\X64\RELEASE\ENGINE.OBJ
^C:\USERS\SEBAS\DESKTOP\PC_REMOTE_CONTROL_SERVER_VS2017\PC_REMOTE_CONTROL_SERVER\ENGINE.CPP
C:\USERS\SEBAS\DESKTOP\PC_REMOTE_CONTROL_SERVER_VS2017\PC_REMOTE_CONTROL_SERVER\X64\RELEASE\ENGINE.OBJ
^C:\USERS\SEBAS\DESKTOP\PC_REMOTE_CONTROL_SERVER_VS2017\PC_REMOTE_CONTROL_SERVER\HASHMAP.CPP
C:\USERS\SEBAS\DESKTOP\PC_REMOTE_CONTROL_SERVER_VS2017\PC_REMOTE_CONTROL_SERVER\X64\RELEASE\HASHMAP.OBJ
^C:\USERS\SEBAS\DESKTOP\PC_REMOTE_CONTROL_SERVER_VS2017\PC_REMOTE_CONTROL_SERVER\KEYBOARDCLASS.CPP
C:\USERS\SEBAS\DESKTOP\PC_REMOTE_CONTROL_SERVER_VS2017\PC_REMOTE_CONTROL_SERVER\X64\RELEASE\KEYBOARDCLASS.OBJ
^C:\USERS\SEBAS\DESKTOP\PC_REMOTE_CONTROL_SERVER_VS2017\PC_REMOTE_CONTROL_SERVER\KEYBOARDEVENT.CPP
C:\USERS\SEBAS\DESKTOP\PC_REMOTE_CONTROL_SERVER_VS2017\PC_REMOTE_CONTROL_SERVER\X64\RELEASE\KEYBOARDEVENT.OBJ
^C:\USERS\SEBAS\DESKTOP\PC_REMOTE_CONTROL_SERVER_VS2017\PC_REMOTE_CONTROL_SERVER\NETWORK.CPP
C:\USERS\SEBAS\DESKTOP\PC_REMOTE_CONTROL_SERVER_VS2017\PC_REMOTE_CONTROL_SERVER\X64\RELEASE\NETWORK.OBJ
^C:\USERS\SEBAS\DESKTOP\PC_REMOTE_CONTROL_SERVER_VS2017\PC_REMOTE_CONTROL_SERVER\SOURCE.CPP
C:\USERS\SEBAS\DESKTOP\PC_REMOTE_CONTROL_SERVER_VS2017\PC_REMOTE_CONTROL_SERVER\X64\RELEASE\SOURCE.OBJ
^C:\USERS\SEBAS\DESKTOP\PC_REMOTE_CONTROL_SERVER_VS2017\PC_REMOTE_CONTROL_SERVER\STRINGCONVERTER.CPP
C:\USERS\SEBAS\DESKTOP\PC_REMOTE_CONTROL_SERVER_VS2017\PC_REMOTE_CONTROL_SERVER\X64\RELEASE\STRINGCONVERTER.OBJ
^C:\USERS\SEBAS\DESKTOP\PC_REMOTE_CONTROL_SERVER_VS2017\PC_REMOTE_CONTROL_SERVER\WINDOWCONTAINER.CPP
C:\USERS\SEBAS\DESKTOP\PC_REMOTE_CONTROL_SERVER_VS2017\PC_REMOTE_CONTROL_SERVER\X64\RELEASE\WINDOWCONTAINER.OBJ
^C:\USERS\SEBAS\DESKTOP\PROJEKTARBEIT\SRC\SERVER\PC_REMOTE_CONTROL_SERVER_VS2017\PC_REMOTE_CONTROL_SERVER\ENGINE.CPP|C:\USERS\SEBAS\DESKTOP\PROJEKTARBEIT\SRC\SERVER\PC_REMOTE_CONTROL_SERVER_VS2017\PC_REMOTE_CONTROL_SERVER\ERRORLOGGER.CPP|C:\USERS\SEBAS\DESKTOP\PROJEKTARBEIT\SRC\SERVER\PC_REMOTE_CONTROL_SERVER_VS2017\PC_REMOTE_CONTROL_SERVER\HASHMAP.CPP|C:\USERS\SEBAS\DESKTOP\PROJEKTARBEIT\SRC\SERVER\PC_REMOTE_CONTROL_SERVER_VS2017\PC_REMOTE_CONTROL_SERVER\KEYBOARDCLASS.CPP|C:\USERS\SEBAS\DESKTOP\PROJEKTARBEIT\SRC\SERVER\PC_REMOTE_CONTROL_SERVER_VS2017\PC_REMOTE_CONTROL_SERVER\KEYBOARDEVENT.CPP|C:\USERS\SEBAS\DESKTOP\PROJEKTARBEIT\SRC\SERVER\PC_REMOTE_CONTROL_SERVER_VS2017\PC_REMOTE_CONTROL_SERVER\NETWORK.CPP|C:\USERS\SEBAS\DESKTOP\PROJEKTARBEIT\SRC\SERVER\PC_REMOTE_CONTROL_SERVER_VS2017\PC_REMOTE_CONTROL_SERVER\RENDERWINDOW.CPP|C:\USERS\SEBAS\DESKTOP\PROJEKTARBEIT\SRC\SERVER\PC_REMOTE_CONTROL_SERVER_VS2017\PC_REMOTE_CONTROL_SERVER\SOURCE.CPP|C:\USERS\SEBAS\DESKTOP\PROJEKTARBEIT\SRC\SERVER\PC_REMOTE_CONTROL_SERVER_VS2017\PC_REMOTE_CONTROL_SERVER\STRINGCONVERTER.CPP|C:\USERS\SEBAS\DESKTOP\PROJEKTARBEIT\SRC\SERVER\PC_REMOTE_CONTROL_SERVER_VS2017\PC_REMOTE_CONTROL_SERVER\WINDOWCONTAINER.CPP
C:\USERS\SEBAS\DESKTOP\PROJEKTARBEIT\SRC\SERVER\PC_REMOTE_CONTROL_SERVER_VS2017\PC_REMOTE_CONTROL_SERVER\X64\RELEASE\VC141.PDB
C:\USERS\SEBAS\DESKTOP\PROJEKTARBEIT\SRC\SERVER\PC_REMOTE_CONTROL_SERVER_VS2017\PC_REMOTE_CONTROL_SERVER\X64\RELEASE\WINDOWCONTAINER.OBJ
C:\USERS\SEBAS\DESKTOP\PROJEKTARBEIT\SRC\SERVER\PC_REMOTE_CONTROL_SERVER_VS2017\PC_REMOTE_CONTROL_SERVER\X64\RELEASE\STRINGCONVERTER.OBJ
C:\USERS\SEBAS\DESKTOP\PROJEKTARBEIT\SRC\SERVER\PC_REMOTE_CONTROL_SERVER_VS2017\PC_REMOTE_CONTROL_SERVER\X64\RELEASE\SOURCE.OBJ
C:\USERS\SEBAS\DESKTOP\PROJEKTARBEIT\SRC\SERVER\PC_REMOTE_CONTROL_SERVER_VS2017\PC_REMOTE_CONTROL_SERVER\X64\RELEASE\NETWORK.OBJ
C:\USERS\SEBAS\DESKTOP\PROJEKTARBEIT\SRC\SERVER\PC_REMOTE_CONTROL_SERVER_VS2017\PC_REMOTE_CONTROL_SERVER\X64\RELEASE\KEYBOARDEVENT.OBJ
C:\USERS\SEBAS\DESKTOP\PROJEKTARBEIT\SRC\SERVER\PC_REMOTE_CONTROL_SERVER_VS2017\PC_REMOTE_CONTROL_SERVER\X64\RELEASE\KEYBOARDCLASS.OBJ
C:\USERS\SEBAS\DESKTOP\PROJEKTARBEIT\SRC\SERVER\PC_REMOTE_CONTROL_SERVER_VS2017\PC_REMOTE_CONTROL_SERVER\X64\RELEASE\HASHMAP.OBJ
C:\USERS\SEBAS\DESKTOP\PROJEKTARBEIT\SRC\SERVER\PC_REMOTE_CONTROL_SERVER_VS2017\PC_REMOTE_CONTROL_SERVER\X64\RELEASE\ENGINE.OBJ
^C:\USERS\SEBAS\DESKTOP\PROJEKTARBEIT\SRC\SERVER\PC_REMOTE_CONTROL_SERVER_VS2017\PC_REMOTE_CONTROL_SERVER\ENGINE.CPP|C:\USERS\SEBAS\DESKTOP\PROJEKTARBEIT\SRC\SERVER\PC_REMOTE_CONTROL_SERVER_VS2017\PC_REMOTE_CONTROL_SERVER\ERRORLOGGER.CPP|C:\USERS\SEBAS\DESKTOP\PROJEKTARBEIT\SRC\SERVER\PC_REMOTE_CONTROL_SERVER_VS2017\PC_REMOTE_CONTROL_SERVER\HASHMAP.CPP|C:\USERS\SEBAS\DESKTOP\PROJEKTARBEIT\SRC\SERVER\PC_REMOTE_CONTROL_SERVER_VS2017\PC_REMOTE_CONTROL_SERVER\KEYBOARDCLASS.CPP|C:\USERS\SEBAS\DESKTOP\PROJEKTARBEIT\SRC\SERVER\PC_REMOTE_CONTROL_SERVER_VS2017\PC_REMOTE_CONTROL_SERVER\KEYBOARDEVENT.CPP|C:\USERS\SEBAS\DESKTOP\PROJEKTARBEIT\SRC\SERVER\PC_REMOTE_CONTROL_SERVER_VS2017\PC_REMOTE_CONTROL_SERVER\MOUSECLASS.CPP|C:\USERS\SEBAS\DESKTOP\PROJEKTARBEIT\SRC\SERVER\PC_REMOTE_CONTROL_SERVER_VS2017\PC_REMOTE_CONTROL_SERVER\MOUSEEVENT.CPP|C:\USERS\SEBAS\DESKTOP\PROJEKTARBEIT\SRC\SERVER\PC_REMOTE_CONTROL_SERVER_VS2017\PC_REMOTE_CONTROL_SERVER\NETWORK.CPP|C:\USERS\SEBAS\DESKTOP\PROJEKTARBEIT\SRC\SERVER\PC_REMOTE_CONTROL_SERVER_VS2017\PC_REMOTE_CONTROL_SERVER\RENDERWINDOW.CPP|C:\USERS\SEBAS\DESKTOP\PROJEKTARBEIT\SRC\SERVER\PC_REMOTE_CONTROL_SERVER_VS2017\PC_REMOTE_CONTROL_SERVER\SOURCE.CPP|C:\USERS\SEBAS\DESKTOP\PROJEKTARBEIT\SRC\SERVER\PC_REMOTE_CONTROL_SERVER_VS2017\PC_REMOTE_CONTROL_SERVER\STRINGCONVERTER.CPP|C:\USERS\SEBAS\DESKTOP\PROJEKTARBEIT\SRC\SERVER\PC_REMOTE_CONTROL_SERVER_VS2017\PC_REMOTE_CONTROL_SERVER\WINDOWCONTAINER.CPP
C:\USERS\SEBAS\DESKTOP\PROJEKTARBEIT\SRC\SERVER\PC_REMOTE_CONTROL_SERVER_VS2017\PC_REMOTE_CONTROL_SERVER\X64\RELEASE\VC141.PDB
C:\USERS\SEBAS\DESKTOP\PROJEKTARBEIT\SRC\SERVER\PC_REMOTE_CONTROL_SERVER_VS2017\PC_REMOTE_CONTROL_SERVER\X64\RELEASE\WINDOWCONTAINER.OBJ
C:\USERS\SEBAS\DESKTOP\PROJEKTARBEIT\SRC\SERVER\PC_REMOTE_CONTROL_SERVER_VS2017\PC_REMOTE_CONTROL_SERVER\X64\RELEASE\STRINGCONVERTER.OBJ
C:\USERS\SEBAS\DESKTOP\PROJEKTARBEIT\SRC\SERVER\PC_REMOTE_CONTROL_SERVER_VS2017\PC_REMOTE_CONTROL_SERVER\X64\RELEASE\SOURCE.OBJ
C:\USERS\SEBAS\DESKTOP\PROJEKTARBEIT\SRC\SERVER\PC_REMOTE_CONTROL_SERVER_VS2017\PC_REMOTE_CONTROL_SERVER\X64\RELEASE\NETWORK.OBJ
C:\USERS\SEBAS\DESKTOP\PROJEKTARBEIT\SRC\SERVER\PC_REMOTE_CONTROL_SERVER_VS2017\PC_REMOTE_CONTROL_SERVER\X64\RELEASE\MOUSEEVENT.OBJ
C:\USERS\SEBAS\DESKTOP\PROJEKTARBEIT\SRC\SERVER\PC_REMOTE_CONTROL_SERVER_VS2017\PC_REMOTE_CONTROL_SERVER\X64\RELEASE\MOUSECLASS.OBJ
C:\USERS\SEBAS\DESKTOP\PROJEKTARBEIT\SRC\SERVER\PC_REMOTE_CONTROL_SERVER_VS2017\PC_REMOTE_CONTROL_SERVER\X64\RELEASE\KEYBOARDEVENT.OBJ
C:\USERS\SEBAS\DESKTOP\PROJEKTARBEIT\SRC\SERVER\PC_REMOTE_CONTROL_SERVER_VS2017\PC_REMOTE_CONTROL_SERVER\X64\RELEASE\KEYBOARDCLASS.OBJ
C:\USERS\SEBAS\DESKTOP\PROJEKTARBEIT\SRC\SERVER\PC_REMOTE_CONTROL_SERVER_VS2017\PC_REMOTE_CONTROL_SERVER\X64\RELEASE\HASHMAP.OBJ
C:\USERS\SEBAS\DESKTOP\PROJEKTARBEIT\SRC\SERVER\PC_REMOTE_CONTROL_SERVER_VS2017\PC_REMOTE_CONTROL_SERVER\X64\RELEASE\ENGINE.OBJ
^C:\USERS\SEBAS\DESKTOP\PROJEKTARBEIT\SRC\SERVER\PC_REMOTE_CONTROL_SERVER_VS2017\PC_REMOTE_CONTROL_SERVER\ENGINE.CPP|C:\USERS\SEBAS\DESKTOP\PROJEKTARBEIT\SRC\SERVER\PC_REMOTE_CONTROL_SERVER_VS2017\PC_REMOTE_CONTROL_SERVER\ERRORLOGGER.CPP|C:\USERS\SEBAS\DESKTOP\PROJEKTARBEIT\SRC\SERVER\PC_REMOTE_CONTROL_SERVER_VS2017\PC_REMOTE_CONTROL_SERVER\HASHMAP.CPP|C:\USERS\SEBAS\DESKTOP\PROJEKTARBEIT\SRC\SERVER\PC_REMOTE_CONTROL_SERVER_VS2017\PC_REMOTE_CONTROL_SERVER\KEYBOARDCLASS.CPP|C:\USERS\SEBAS\DESKTOP\PROJEKTARBEIT\SRC\SERVER\PC_REMOTE_CONTROL_SERVER_VS2017\PC_REMOTE_CONTROL_SERVER\KEYBOARDEVENT.CPP|C:\USERS\SEBAS\DESKTOP\PROJEKTARBEIT\SRC\SERVER\PC_REMOTE_CONTROL_SERVER_VS2017\PC_REMOTE_CONTROL_SERVER\MOUSECLASS.CPP|C:\USERS\SEBAS\DESKTOP\PROJEKTARBEIT\SRC\SERVER\PC_REMOTE_CONTROL_SERVER_VS2017\PC_REMOTE_CONTROL_SERVER\MOUSEEVENT.CPP|C:\USERS\SEBAS\DESKTOP\PROJEKTARBEIT\SRC\SERVER\PC_REMOTE_CONTROL_SERVER_VS2017\PC_REMOTE_CONTROL_SERVER\NETWORK.CPP|C:\USERS\SEBAS\DESKTOP\PROJEKTARBEIT\SRC\SERVER\PC_REMOTE_CONTROL_SERVER_VS2017\PC_REMOTE_CONTROL_SERVER\RENDERWINDOW.CPP|C:\USERS\SEBAS\DESKTOP\PROJEKTARBEIT\SRC\SERVER\PC_REMOTE_CONTROL_SERVER_VS2017\PC_REMOTE_CONTROL_SERVER\SOURCE.CPP|C:\USERS\SEBAS\DESKTOP\PROJEKTARBEIT\SRC\SERVER\PC_REMOTE_CONTROL_SERVER_VS2017\PC_REMOTE_CONTROL_SERVER\STRINGCONVERTER.CPP|C:\USERS\SEBAS\DESKTOP\PROJEKTARBEIT\SRC\SERVER\PC_REMOTE_CONTROL_SERVER_VS2017\PC_REMOTE_CONTROL_SERVER\TWEETNACL.CPP|C:\USERS\SEBAS\DESKTOP\PROJEKTARBEIT\SRC\SERVER\PC_REMOTE_CONTROL_SERVER_VS2017\PC_REMOTE_CONTROL_SERVER\WINDOWCONTAINER.CPP
C:\USERS\SEBAS\DESKTOP\PROJEKTARBEIT\SRC\SERVER\PC_REMOTE_CONTROL_SERVER_VS2017\PC_REMOTE_CONTROL_SERVER\X64\RELEASE\VC141.PDB
C:\USERS\SEBAS\DESKTOP\PROJEKTARBEIT\SRC\SERVER\PC_REMOTE_CONTROL_SERVER_VS2017\PC_REMOTE_CONTROL_SERVER\X64\RELEASE\WINDOWCONTAINER.OBJ
C:\USERS\SEBAS\DESKTOP\PROJEKTARBEIT\SRC\SERVER\PC_REMOTE_CONTROL_SERVER_VS2017\PC_REMOTE_CONTROL_SERVER\X64\RELEASE\TWEETNACL.OBJ
C:\USERS\SEBAS\DESKTOP\PROJEKTARBEIT\SRC\SERVER\PC_REMOTE_CONTROL_SERVER_VS2017\PC_REMOTE_CONTROL_SERVER\X64\RELEASE\STRINGCONVERTER.OBJ
C:\USERS\SEBAS\DESKTOP\PROJEKTARBEIT\SRC\SERVER\PC_REMOTE_CONTROL_SERVER_VS2017\PC_REMOTE_CONTROL_SERVER\X64\RELEASE\SOURCE.OBJ
C:\USERS\SEBAS\DESKTOP\PROJEKTARBEIT\SRC\SERVER\PC_REMOTE_CONTROL_SERVER_VS2017\PC_REMOTE_CONTROL_SERVER\X64\RELEASE\NETWORK.OBJ
C:\USERS\SEBAS\DESKTOP\PROJEKTARBEIT\SRC\SERVER\PC_REMOTE_CONTROL_SERVER_VS2017\PC_REMOTE_CONTROL_SERVER\X64\RELEASE\MOUSEEVENT.OBJ
C:\USERS\SEBAS\DESKTOP\PROJEKTARBEIT\SRC\SERVER\PC_REMOTE_CONTROL_SERVER_VS2017\PC_REMOTE_CONTROL_SERVER\X64\RELEASE\MOUSECLASS.OBJ
C:\USERS\SEBAS\DESKTOP\PROJEKTARBEIT\SRC\SERVER\PC_REMOTE_CONTROL_SERVER_VS2017\PC_REMOTE_CONTROL_SERVER\X64\RELEASE\KEYBOARDEVENT.OBJ
C:\USERS\SEBAS\DESKTOP\PROJEKTARBEIT\SRC\SERVER\PC_REMOTE_CONTROL_SERVER_VS2017\PC_REMOTE_CONTROL_SERVER\X64\RELEASE\KEYBOARDCLASS.OBJ
C:\USERS\SEBAS\DESKTOP\PROJEKTARBEIT\SRC\SERVER\PC_REMOTE_CONTROL_SERVER_VS2017\PC_REMOTE_CONTROL_SERVER\X64\RELEASE\HASHMAP.OBJ
C:\USERS\SEBAS\DESKTOP\PROJEKTARBEIT\SRC\SERVER\PC_REMOTE_CONTROL_SERVER_VS2017\PC_REMOTE_CONTROL_SERVER\X64\RELEASE\ENGINE.OBJ
^C:\USERS\SEBAS\DESKTOP\PROJEKTARBEIT\SRC\SERVER\PC_REMOTE_CONTROL_SERVER_VS2017\PC_REMOTE_CONTROL_SERVER\ENGINE.CPP
C:\USERS\SEBAS\DESKTOP\PROJEKTARBEIT\SRC\SERVER\PC_REMOTE_CONTROL_SERVER_VS2017\PC_REMOTE_CONTROL_SERVER\X64\RELEASE\ENGINE.OBJ
^C:\USERS\SEBAS\DESKTOP\PROJEKTARBEIT\SRC\SERVER\PC_REMOTE_CONTROL_SERVER_VS2017\PC_REMOTE_CONTROL_SERVER\HASHMAP.CPP
C:\USERS\SEBAS\DESKTOP\PROJEKTARBEIT\SRC\SERVER\PC_REMOTE_CONTROL_SERVER_VS2017\PC_REMOTE_CONTROL_SERVER\X64\RELEASE\HASHMAP.OBJ
^C:\USERS\SEBAS\DESKTOP\PROJEKTARBEIT\SRC\SERVER\PC_REMOTE_CONTROL_SERVER_VS2017\PC_REMOTE_CONTROL_SERVER\KEYBOARDCLASS.CPP
C:\USERS\SEBAS\DESKTOP\PROJEKTARBEIT\SRC\SERVER\PC_REMOTE_CONTROL_SERVER_VS2017\PC_REMOTE_CONTROL_SERVER\X64\RELEASE\KEYBOARDCLASS.OBJ
^C:\USERS\SEBAS\DESKTOP\PROJEKTARBEIT\SRC\SERVER\PC_REMOTE_CONTROL_SERVER_VS2017\PC_REMOTE_CONTROL_SERVER\KEYBOARDEVENT.CPP
C:\USERS\SEBAS\DESKTOP\PROJEKTARBEIT\SRC\SERVER\PC_REMOTE_CONTROL_SERVER_VS2017\PC_REMOTE_CONTROL_SERVER\X64\RELEASE\KEYBOARDEVENT.OBJ
^C:\USERS\SEBAS\DESKTOP\PROJEKTARBEIT\SRC\SERVER\PC_REMOTE_CONTROL_SERVER_VS2017\PC_REMOTE_CONTROL_SERVER\MOUSECLASS.CPP
C:\USERS\SEBAS\DESKTOP\PROJEKTARBEIT\SRC\SERVER\PC_REMOTE_CONTROL_SERVER_VS2017\PC_REMOTE_CONTROL_SERVER\X64\RELEASE\MOUSECLASS.OBJ
^C:\USERS\SEBAS\DESKTOP\PROJEKTARBEIT\SRC\SERVER\PC_REMOTE_CONTROL_SERVER_VS2017\PC_REMOTE_CONTROL_SERVER\MOUSEEVENT.CPP
C:\USERS\SEBAS\DESKTOP\PROJEKTARBEIT\SRC\SERVER\PC_REMOTE_CONTROL_SERVER_VS2017\PC_REMOTE_CONTROL_SERVER\X64\RELEASE\MOUSEEVENT.OBJ
^C:\USERS\SEBAS\DESKTOP\PROJEKTARBEIT\SRC\SERVER\PC_REMOTE_CONTROL_SERVER_VS2017\PC_REMOTE_CONTROL_SERVER\NETWORK.CPP
C:\USERS\SEBAS\DESKTOP\PROJEKTARBEIT\SRC\SERVER\PC_REMOTE_CONTROL_SERVER_VS2017\PC_REMOTE_CONTROL_SERVER\X64\RELEASE\NETWORK.OBJ
^C:\USERS\SEBAS\DESKTOP\PROJEKTARBEIT\SRC\SERVER\PC_REMOTE_CONTROL_SERVER_VS2017\PC_REMOTE_CONTROL_SERVER\SOURCE.CPP
C:\USERS\SEBAS\DESKTOP\PROJEKTARBEIT\SRC\SERVER\PC_REMOTE_CONTROL_SERVER_VS2017\PC_REMOTE_CONTROL_SERVER\X64\RELEASE\SOURCE.OBJ
^C:\USERS\SEBAS\DESKTOP\PROJEKTARBEIT\SRC\SERVER\PC_REMOTE_CONTROL_SERVER_VS2017\PC_REMOTE_CONTROL_SERVER\STRINGCONVERTER.CPP
C:\USERS\SEBAS\DESKTOP\PROJEKTARBEIT\SRC\SERVER\PC_REMOTE_CONTROL_SERVER_VS2017\PC_REMOTE_CONTROL_SERVER\X64\RELEASE\STRINGCONVERTER.OBJ
^C:\USERS\SEBAS\DESKTOP\PROJEKTARBEIT\SRC\SERVER\PC_REMOTE_CONTROL_SERVER_VS2017\PC_REMOTE_CONTROL_SERVER\TWEETNACL.CPP
C:\USERS\SEBAS\DESKTOP\PROJEKTARBEIT\SRC\SERVER\PC_REMOTE_CONTROL_SERVER_VS2017\PC_REMOTE_CONTROL_SERVER\X64\RELEASE\TWEETNACL.OBJ
^C:\USERS\SEBAS\DESKTOP\PROJEKTARBEIT\SRC\SERVER\PC_REMOTE_CONTROL_SERVER_VS2017\PC_REMOTE_CONTROL_SERVER\WINDOWCONTAINER.CPP
C:\USERS\SEBAS\DESKTOP\PROJEKTARBEIT\SRC\SERVER\PC_REMOTE_CONTROL_SERVER_VS2017\PC_REMOTE_CONTROL_SERVER\X64\RELEASE\WINDOWCONTAINER.OBJ
