^C:\USERS\SEBAS\DESKTOP\PROJEKTARBEIT\SRC\SERVER\WINDOWS_VS2017_SOLUTION\DIRECTX VS2017\ERRORLOGGER.CPP
/c /ZI /JMC /nologo /W3 /WX- /diagnostics:classic /sdl /Od /D _DEBUG /D _WINDOWS /D _UNICODE /D UNICODE /Gm- /EHsc /RTC1 /MDd /GS /fp:precise /permissive- /Zc:wchar_t /Zc:forScope /Zc:inline /Fo"X64\DEBUG\\" /Fd"X64\DEBUG\VC141.PDB" /Gd /TP /FC C:\USERS\SEBAS\DESKTOP\PROJEKTARBEIT\SRC\SERVER\WINDOWS_VS2017_SOLUTION\DIRECTX VS2017\ERRORLOGGER.CPP
^C:\USERS\SEBAS\DESKTOP\PROJEKTARBEIT\SRC\SERVER\WINDOWS_VS2017_SOLUTION\DIRECTX VS2017\KEYBOARDCLASS.CPP
/c /ZI /JMC /nologo /W3 /WX- /diagnostics:classic /sdl /Od /D _DEBUG /D _WINDOWS /D _UNICODE /D UNICODE /Gm- /EHsc /RTC1 /MDd /GS /fp:precise /permissive- /Zc:wchar_t /Zc:forScope /Zc:inline /Fo"X64\DEBUG\\" /Fd"X64\DEBUG\VC141.PDB" /Gd /TP /FC C:\USERS\SEBAS\DESKTOP\PROJEKTARBEIT\SRC\SERVER\WINDOWS_VS2017_SOLUTION\DIRECTX VS2017\KEYBOARDCLASS.CPP
^C:\USERS\SEBAS\DESKTOP\PROJEKTARBEIT\SRC\SERVER\WINDOWS_VS2017_SOLUTION\DIRECTX VS2017\KEYBOARDEVENT.CPP
/c /ZI /JMC /nologo /W3 /WX- /diagnostics:classic /sdl /Od /D _DEBUG /D _WINDOWS /D _UNICODE /D UNICODE /Gm- /EHsc /RTC1 /MDd /GS /fp:precise /permissive- /Zc:wchar_t /Zc:forScope /Zc:inline /Fo"X64\DEBUG\\" /Fd"X64\DEBUG\VC141.PDB" /Gd /TP /FC C:\USERS\SEBAS\DESKTOP\PROJEKTARBEIT\SRC\SERVER\WINDOWS_VS2017_SOLUTION\DIRECTX VS2017\KEYBOARDEVENT.CPP
^C:\USERS\SEBAS\DESKTOP\PROJEKTARBEIT\SRC\SERVER\WINDOWS_VS2017_SOLUTION\DIRECTX VS2017\NETWORK.CPP
/c /ZI /JMC /nologo /W3 /WX- /diagnostics:classic /sdl /Od /D _DEBUG /D _WINDOWS /D _UNICODE /D UNICODE /Gm- /EHsc /RTC1 /MDd /GS /fp:precise /permissive- /Zc:wchar_t /Zc:forScope /Zc:inline /Fo"X64\DEBUG\\" /Fd"X64\DEBUG\VC141.PDB" /Gd /TP /FC C:\USERS\SEBAS\DESKTOP\PROJEKTARBEIT\SRC\SERVER\WINDOWS_VS2017_SOLUTION\DIRECTX VS2017\NETWORK.CPP
^C:\USERS\SEBAS\DESKTOP\PROJEKTARBEIT\SRC\SERVER\WINDOWS_VS2017_SOLUTION\DIRECTX VS2017\RENDERWINDOW.CPP
/c /ZI /JMC /nologo /W3 /WX- /diagnostics:classic /sdl /Od /D _DEBUG /D _WINDOWS /D _UNICODE /D UNICODE /Gm- /EHsc /RTC1 /MDd /GS /fp:precise /permissive- /Zc:wchar_t /Zc:forScope /Zc:inline /Fo"X64\DEBUG\\" /Fd"X64\DEBUG\VC141.PDB" /Gd /TP /FC C:\USERS\SEBAS\DESKTOP\PROJEKTARBEIT\SRC\SERVER\WINDOWS_VS2017_SOLUTION\DIRECTX VS2017\RENDERWINDOW.CPP
^C:\USERS\SEBAS\DESKTOP\PROJEKTARBEIT\SRC\SERVER\WINDOWS_VS2017_SOLUTION\DIRECTX VS2017\STRINGCONVERTER.CPP
/c /ZI /JMC /nologo /W3 /WX- /diagnostics:classic /sdl /Od /D _DEBUG /D _WINDOWS /D _UNICODE /D UNICODE /Gm- /EHsc /RTC1 /MDd /GS /fp:precise /permissive- /Zc:wchar_t /Zc:forScope /Zc:inline /Fo"X64\DEBUG\\" /Fd"X64\DEBUG\VC141.PDB" /Gd /TP /FC C:\USERS\SEBAS\DESKTOP\PROJEKTARBEIT\SRC\SERVER\WINDOWS_VS2017_SOLUTION\DIRECTX VS2017\STRINGCONVERTER.CPP
^C:\USERS\SEBAS\DESKTOP\PROJEKTARBEIT\SRC\SERVER\WINDOWS_VS2017_SOLUTION\DIRECTX VS2017\SOURCE.CPP
/c /ZI /JMC /nologo /W3 /WX- /diagnostics:classic /sdl /Od /D _DEBUG /D _WINDOWS /D _UNICODE /D UNICODE /Gm- /EHsc /RTC1 /MDd /GS /fp:precise /permissive- /Zc:wchar_t /Zc:forScope /Zc:inline /Fo"X64\DEBUG\\" /Fd"X64\DEBUG\VC141.PDB" /Gd /TP /FC C:\USERS\SEBAS\DESKTOP\PROJEKTARBEIT\SRC\SERVER\WINDOWS_VS2017_SOLUTION\DIRECTX VS2017\SOURCE.CPP
^C:\USERS\SEBAS\DESKTOP\PROJEKTARBEIT\SRC\SERVER\WINDOWS_VS2017_SOLUTION\DIRECTX VS2017\HASHMAP.CPP
/c /ZI /JMC /nologo /W3 /WX- /diagnostics:classic /sdl /Od /D _DEBUG /D _WINDOWS /D _UNICODE /D UNICODE /Gm- /EHsc /RTC1 /MDd /GS /fp:precise /permissive- /Zc:wchar_t /Zc:forScope /Zc:inline /Fo"X64\DEBUG\\" /Fd"X64\DEBUG\VC141.PDB" /Gd /TP /FC C:\USERS\SEBAS\DESKTOP\PROJEKTARBEIT\SRC\SERVER\WINDOWS_VS2017_SOLUTION\DIRECTX VS2017\HASHMAP.CPP
^C:\USERS\SEBAS\DESKTOP\PROJEKTARBEIT\SRC\SERVER\WINDOWS_VS2017_SOLUTION\DIRECTX VS2017\WINDOWCONTAINER.CPP
/c /ZI /JMC /nologo /W3 /WX- /diagnostics:classic /sdl /Od /D _DEBUG /D _WINDOWS /D _UNICODE /D UNICODE /Gm- /EHsc /RTC1 /MDd /GS /fp:precise /permissive- /Zc:wchar_t /Zc:forScope /Zc:inline /Fo"X64\DEBUG\\" /Fd"X64\DEBUG\VC141.PDB" /Gd /TP /FC C:\USERS\SEBAS\DESKTOP\PROJEKTARBEIT\SRC\SERVER\WINDOWS_VS2017_SOLUTION\DIRECTX VS2017\WINDOWCONTAINER.CPP
^C:\USERS\SEBAS\DESKTOP\PROJEKTARBEIT\SRC\SERVER\WINDOWS_VS2017_SOLUTION\DIRECTX VS2017\ENGINE.CPP
/c /ZI /JMC /nologo /W3 /WX- /diagnostics:classic /sdl /Od /D _DEBUG /D _WINDOWS /D _UNICODE /D UNICODE /Gm- /EHsc /RTC1 /MDd /GS /fp:precise /permissive- /Zc:wchar_t /Zc:forScope /Zc:inline /Fo"X64\DEBUG\\" /Fd"X64\DEBUG\VC141.PDB" /Gd /TP /FC C:\USERS\SEBAS\DESKTOP\PROJEKTARBEIT\SRC\SERVER\WINDOWS_VS2017_SOLUTION\DIRECTX VS2017\ENGINE.CPP
