tweetnacl.c:27:12:L32	16	static
tweetnacl.c:29:12:ld32	24	static
tweetnacl.c:37:12:dl64	40	static
tweetnacl.c:44:4:st32	24	static
tweetnacl.c:50:4:ts64	32	static
tweetnacl.c:56:12:vn	32	static
tweetnacl.c:63:5:crypto_verify_16_tweet	16	static
tweetnacl.c:68:5:crypto_verify_32_tweet	16	static
tweetnacl.c:73:4:core	256	static
tweetnacl.c:113:5:crypto_core_salsa20_tweet	32	static
tweetnacl.c:119:5:crypto_core_hsalsa20_tweet	32	static
tweetnacl.c:127:5:crypto_stream_salsa20_tweet_xor	120	static
tweetnacl.c:154:5:crypto_stream_salsa20_tweet	32	static
tweetnacl.c:159:5:crypto_stream_xsalsa20_tweet	64	static
tweetnacl.c:166:5:crypto_stream_xsalsa20_tweet_xor	64	static
tweetnacl.c:173:4:add1305	24	static
tweetnacl.c:187:5:crypto_onetimeauth_poly1305_tweet	392	static
tweetnacl.c:240:5:crypto_onetimeauth_poly1305_tweet_verify	48	static
tweetnacl.c:247:5:crypto_secretbox_xsalsa20poly1305_tweet	48	static
tweetnacl.c:257:5:crypto_secretbox_xsalsa20poly1305_tweet_open	80	static
tweetnacl.c:269:4:set25519	24	static
tweetnacl.c:275:4:car25519	56	static
tweetnacl.c:287:4:sel25519	56	static
tweetnacl.c:297:4:pack25519	304	static
tweetnacl.c:322:12:neq25519	80	static
tweetnacl.c:330:11:par25519	48	static
tweetnacl.c:337:4:unpack25519	40	static
tweetnacl.c:344:4:A	40	static
tweetnacl.c:350:4:Z	40	static
tweetnacl.c:356:4:M	312	static
tweetnacl.c:367:4:S	16	static
tweetnacl.c:372:4:inv25519	160	static
tweetnacl.c:384:4:pow2523	160	static
tweetnacl.c:396:5:crypto_scalarmult_curve25519_tweet	1488	static
tweetnacl.c:447:5:crypto_scalarmult_curve25519_tweet_base	16	static
tweetnacl.c:452:5:crypto_box_curve25519xsalsa20poly1305_tweet_keypair	16	static
tweetnacl.c:458:5:crypto_box_curve25519xsalsa20poly1305_tweet_beforenm	56	static
tweetnacl.c:465:5:crypto_box_curve25519xsalsa20poly1305_tweet_afternm	32	static
tweetnacl.c:470:5:crypto_box_curve25519xsalsa20poly1305_tweet_open_afternm	32	static
tweetnacl.c:475:5:crypto_box_curve25519xsalsa20poly1305_tweet	64	static
tweetnacl.c:482:5:crypto_box_curve25519xsalsa20poly1305_tweet_open	64	static
tweetnacl.c:489:12:R	40	static
tweetnacl.c:490:12:Ch	40	static
tweetnacl.c:491:12:Maj	40	static
tweetnacl.c:492:12:Sigma0	32	static
tweetnacl.c:493:12:Sigma1	32	static
tweetnacl.c:494:12:sigma0	40	static
tweetnacl.c:495:12:sigma1	40	static
tweetnacl.c:521:5:crypto_hashblocks_sha512_tweet	384	static
tweetnacl.c:564:5:crypto_hash_sha512_tweet	368	static
tweetnacl.c:590:4:add	1168	static
tweetnacl.c:615:4:cswap	32	static
tweetnacl.c:622:4:pack	400	static
tweetnacl.c:632:4:scalarmult	32	static
tweetnacl.c:648:4:scalarbase	528	static
tweetnacl.c:658:5:crypto_sign_ed25519_tweet_keypair	600	static
tweetnacl.c:679:4:modL	64	static
tweetnacl.c:705:4:reduce	544	static
tweetnacl.c:713:5:crypto_sign_ed25519_tweet	1280	static
tweetnacl.c:745:12:unpackneg	912	static
tweetnacl.c:781:5:crypto_sign_ed25519_tweet_open	1160	static
