^C:\USERS\SEBAS\DESKTOP\PROJEKTARBEIT\SRC\SERVER\DIRECTX VS2017\DIRECTX VS2017\X64\DEBUG\ENGINE.OBJ|C:\USERS\SEBAS\DESKTOP\PROJEKTARBEIT\SRC\SERVER\DIRECTX VS2017\DIRECTX VS2017\X64\DEBUG\ERRORLOGGER.OBJ|C:\USERS\SEBAS\DESKTOP\PROJEKTARBEIT\SRC\SERVER\DIRECTX VS2017\DIRECTX VS2017\X64\DEBUG\HASHMAP.OBJ|C:\USERS\SEBAS\DESKTOP\PROJEKTARBEIT\SRC\SERVER\DIRECTX VS2017\DIRECTX VS2017\X64\DEBUG\KEYBOARDCLASS.OBJ|C:\USERS\SEBAS\DESKTOP\PROJEKTARBEIT\SRC\SERVER\DIRECTX VS2017\DIRECTX VS2017\X64\DEBUG\KEYBOARDEVENT.OBJ|C:\USERS\SEBAS\DESKTOP\PROJEKTARBEIT\SRC\SERVER\DIRECTX VS2017\DIRECTX VS2017\X64\DEBUG\NETWORK.OBJ|C:\USERS\SEBAS\DESKTOP\PROJEKTARBEIT\SRC\SERVER\DIRECTX VS2017\DIRECTX VS2017\X64\DEBUG\RENDERWINDOW.OBJ|C:\USERS\SEBAS\DESKTOP\PROJEKTARBEIT\SRC\SERVER\DIRECTX VS2017\DIRECTX VS2017\X64\DEBUG\SOURCE.OBJ|C:\USERS\SEBAS\DESKTOP\PROJEKTARBEIT\SRC\SERVER\DIRECTX VS2017\DIRECTX VS2017\X64\DEBUG\STRINGCONVERTER.OBJ|C:\USERS\SEBAS\DESKTOP\PROJEKTARBEIT\SRC\SERVER\DIRECTX VS2017\DIRECTX VS2017\X64\DEBUG\WINDOWCONTAINER.OBJ
C:\USERS\SEBAS\DESKTOP\PROJEKTARBEIT\SRC\SERVER\DIRECTX VS2017\X64\DEBUG\DIRECTX VS2017.EXE
C:\USERS\SEBAS\DESKTOP\PROJEKTARBEIT\SRC\SERVER\DIRECTX VS2017\X64\DEBUG\DIRECTX VS2017.ILK
C:\USERS\SEBAS\DESKTOP\PROJEKTARBEIT\SRC\SERVER\DIRECTX VS2017\X64\DEBUG\DIRECTX VS2017.PDB
