^C:\USERS\SEBAS\DESKTOP\PROJEKTARBEIT\SRC\SERVER\PC_REMOTE_CONTROL_SERVER_VS2017\PC_REMOTE_CONTROL_SERVER\ERRORLOGGER.CPP
/c /I"C:\USERS\SEBAS\VCPKG\SCRIPTS\BUILDSYSTEMS\MSBUILD\..\..\..\INSTALLED\X64-WINDOWS\INCLUDE" /ZI /JMC /nologo /W3 /WX- /diagnostics:classic /sdl /Od /D SODIUM_STATIC=1 /D SODIUM_EXPORT= /D _UNICODE /D UNICODE /Gm- /EHsc /RTC1 /MDd /GS /fp:precise /permissive- /Zc:wchar_t /Zc:forScope /Zc:inline /Fo"X64\DEBUG\\" /Fd"X64\DEBUG\VC141.PDB" /Gd /TP /FC C:\USERS\SEBAS\DESKTOP\PROJEKTARBEIT\SRC\SERVER\PC_REMOTE_CONTROL_SERVER_VS2017\PC_REMOTE_CONTROL_SERVER\ERRORLOGGER.CPP
^C:\USERS\SEBAS\DESKTOP\PROJEKTARBEIT\SRC\SERVER\PC_REMOTE_CONTROL_SERVER_VS2017\PC_REMOTE_CONTROL_SERVER\HASHMAP.CPP
/c /I"C:\USERS\SEBAS\VCPKG\SCRIPTS\BUILDSYSTEMS\MSBUILD\..\..\..\INSTALLED\X64-WINDOWS\INCLUDE" /ZI /JMC /nologo /W3 /WX- /diagnostics:classic /sdl /Od /D SODIUM_STATIC=1 /D SODIUM_EXPORT= /D _UNICODE /D UNICODE /Gm- /EHsc /RTC1 /MDd /GS /fp:precise /permissive- /Zc:wchar_t /Zc:forScope /Zc:inline /Fo"X64\DEBUG\\" /Fd"X64\DEBUG\VC141.PDB" /Gd /TP /FC C:\USERS\SEBAS\DESKTOP\PROJEKTARBEIT\SRC\SERVER\PC_REMOTE_CONTROL_SERVER_VS2017\PC_REMOTE_CONTROL_SERVER\HASHMAP.CPP
^C:\USERS\SEBAS\DESKTOP\PROJEKTARBEIT\SRC\SERVER\PC_REMOTE_CONTROL_SERVER_VS2017\PC_REMOTE_CONTROL_SERVER\KEYBOARDCLASS.CPP
/c /I"C:\USERS\SEBAS\VCPKG\SCRIPTS\BUILDSYSTEMS\MSBUILD\..\..\..\INSTALLED\X64-WINDOWS\INCLUDE" /ZI /JMC /nologo /W3 /WX- /diagnostics:classic /sdl /Od /D SODIUM_STATIC=1 /D SODIUM_EXPORT= /D _UNICODE /D UNICODE /Gm- /EHsc /RTC1 /MDd /GS /fp:precise /permissive- /Zc:wchar_t /Zc:forScope /Zc:inline /Fo"X64\DEBUG\\" /Fd"X64\DEBUG\VC141.PDB" /Gd /TP /FC C:\USERS\SEBAS\DESKTOP\PROJEKTARBEIT\SRC\SERVER\PC_REMOTE_CONTROL_SERVER_VS2017\PC_REMOTE_CONTROL_SERVER\KEYBOARDCLASS.CPP
^C:\USERS\SEBAS\DESKTOP\PROJEKTARBEIT\SRC\SERVER\PC_REMOTE_CONTROL_SERVER_VS2017\PC_REMOTE_CONTROL_SERVER\KEYBOARDEVENT.CPP
/c /I"C:\USERS\SEBAS\VCPKG\SCRIPTS\BUILDSYSTEMS\MSBUILD\..\..\..\INSTALLED\X64-WINDOWS\INCLUDE" /ZI /JMC /nologo /W3 /WX- /diagnostics:classic /sdl /Od /D SODIUM_STATIC=1 /D SODIUM_EXPORT= /D _UNICODE /D UNICODE /Gm- /EHsc /RTC1 /MDd /GS /fp:precise /permissive- /Zc:wchar_t /Zc:forScope /Zc:inline /Fo"X64\DEBUG\\" /Fd"X64\DEBUG\VC141.PDB" /Gd /TP /FC C:\USERS\SEBAS\DESKTOP\PROJEKTARBEIT\SRC\SERVER\PC_REMOTE_CONTROL_SERVER_VS2017\PC_REMOTE_CONTROL_SERVER\KEYBOARDEVENT.CPP
^C:\USERS\SEBAS\DESKTOP\PROJEKTARBEIT\SRC\SERVER\PC_REMOTE_CONTROL_SERVER_VS2017\PC_REMOTE_CONTROL_SERVER\MOUSECLASS.CPP
/c /I"C:\USERS\SEBAS\VCPKG\SCRIPTS\BUILDSYSTEMS\MSBUILD\..\..\..\INSTALLED\X64-WINDOWS\INCLUDE" /ZI /JMC /nologo /W3 /WX- /diagnostics:classic /sdl /Od /D SODIUM_STATIC=1 /D SODIUM_EXPORT= /D _UNICODE /D UNICODE /Gm- /EHsc /RTC1 /MDd /GS /fp:precise /permissive- /Zc:wchar_t /Zc:forScope /Zc:inline /Fo"X64\DEBUG\\" /Fd"X64\DEBUG\VC141.PDB" /Gd /TP /FC C:\USERS\SEBAS\DESKTOP\PROJEKTARBEIT\SRC\SERVER\PC_REMOTE_CONTROL_SERVER_VS2017\PC_REMOTE_CONTROL_SERVER\MOUSECLASS.CPP
^C:\USERS\SEBAS\DESKTOP\PROJEKTARBEIT\SRC\SERVER\PC_REMOTE_CONTROL_SERVER_VS2017\PC_REMOTE_CONTROL_SERVER\MOUSEEVENT.CPP
/c /I"C:\USERS\SEBAS\VCPKG\SCRIPTS\BUILDSYSTEMS\MSBUILD\..\..\..\INSTALLED\X64-WINDOWS\INCLUDE" /ZI /JMC /nologo /W3 /WX- /diagnostics:classic /sdl /Od /D SODIUM_STATIC=1 /D SODIUM_EXPORT= /D _UNICODE /D UNICODE /Gm- /EHsc /RTC1 /MDd /GS /fp:precise /permissive- /Zc:wchar_t /Zc:forScope /Zc:inline /Fo"X64\DEBUG\\" /Fd"X64\DEBUG\VC141.PDB" /Gd /TP /FC C:\USERS\SEBAS\DESKTOP\PROJEKTARBEIT\SRC\SERVER\PC_REMOTE_CONTROL_SERVER_VS2017\PC_REMOTE_CONTROL_SERVER\MOUSEEVENT.CPP
^C:\USERS\SEBAS\DESKTOP\PROJEKTARBEIT\SRC\SERVER\PC_REMOTE_CONTROL_SERVER_VS2017\PC_REMOTE_CONTROL_SERVER\RENDERWINDOW.CPP
/c /I"C:\USERS\SEBAS\VCPKG\SCRIPTS\BUILDSYSTEMS\MSBUILD\..\..\..\INSTALLED\X64-WINDOWS\INCLUDE" /ZI /JMC /nologo /W3 /WX- /diagnostics:classic /sdl /Od /D SODIUM_STATIC=1 /D SODIUM_EXPORT= /D _UNICODE /D UNICODE /Gm- /EHsc /RTC1 /MDd /GS /fp:precise /permissive- /Zc:wchar_t /Zc:forScope /Zc:inline /Fo"X64\DEBUG\\" /Fd"X64\DEBUG\VC141.PDB" /Gd /TP /FC C:\USERS\SEBAS\DESKTOP\PROJEKTARBEIT\SRC\SERVER\PC_REMOTE_CONTROL_SERVER_VS2017\PC_REMOTE_CONTROL_SERVER\RENDERWINDOW.CPP
^C:\USERS\SEBAS\DESKTOP\PROJEKTARBEIT\SRC\SERVER\PC_REMOTE_CONTROL_SERVER_VS2017\PC_REMOTE_CONTROL_SERVER\STRINGCONVERTER.CPP
/c /I"C:\USERS\SEBAS\VCPKG\SCRIPTS\BUILDSYSTEMS\MSBUILD\..\..\..\INSTALLED\X64-WINDOWS\INCLUDE" /ZI /JMC /nologo /W3 /WX- /diagnostics:classic /sdl /Od /D SODIUM_STATIC=1 /D SODIUM_EXPORT= /D _UNICODE /D UNICODE /Gm- /EHsc /RTC1 /MDd /GS /fp:precise /permissive- /Zc:wchar_t /Zc:forScope /Zc:inline /Fo"X64\DEBUG\\" /Fd"X64\DEBUG\VC141.PDB" /Gd /TP /FC C:\USERS\SEBAS\DESKTOP\PROJEKTARBEIT\SRC\SERVER\PC_REMOTE_CONTROL_SERVER_VS2017\PC_REMOTE_CONTROL_SERVER\STRINGCONVERTER.CPP
^C:\USERS\SEBAS\DESKTOP\PROJEKTARBEIT\SRC\SERVER\PC_REMOTE_CONTROL_SERVER_VS2017\PC_REMOTE_CONTROL_SERVER\TWEETNACL.CPP
/c /I"C:\USERS\SEBAS\VCPKG\SCRIPTS\BUILDSYSTEMS\MSBUILD\..\..\..\INSTALLED\X64-WINDOWS\INCLUDE" /ZI /JMC /nologo /W3 /WX- /diagnostics:classic /sdl /Od /D SODIUM_STATIC=1 /D SODIUM_EXPORT= /D _UNICODE /D UNICODE /Gm- /EHsc /RTC1 /MDd /GS /fp:precise /permissive- /Zc:wchar_t /Zc:forScope /Zc:inline /Fo"X64\DEBUG\\" /Fd"X64\DEBUG\VC141.PDB" /Gd /TP /FC C:\USERS\SEBAS\DESKTOP\PROJEKTARBEIT\SRC\SERVER\PC_REMOTE_CONTROL_SERVER_VS2017\PC_REMOTE_CONTROL_SERVER\TWEETNACL.CPP
^C:\USERS\SEBAS\DESKTOP\PROJEKTARBEIT\SRC\SERVER\PC_REMOTE_CONTROL_SERVER_VS2017\PC_REMOTE_CONTROL_SERVER\WINDOWCONTAINER.CPP
/c /I"C:\USERS\SEBAS\VCPKG\SCRIPTS\BUILDSYSTEMS\MSBUILD\..\..\..\INSTALLED\X64-WINDOWS\INCLUDE" /ZI /JMC /nologo /W3 /WX- /diagnostics:classic /sdl /Od /D SODIUM_STATIC=1 /D SODIUM_EXPORT= /D _UNICODE /D UNICODE /Gm- /EHsc /RTC1 /MDd /GS /fp:precise /permissive- /Zc:wchar_t /Zc:forScope /Zc:inline /Fo"X64\DEBUG\\" /Fd"X64\DEBUG\VC141.PDB" /Gd /TP /FC C:\USERS\SEBAS\DESKTOP\PROJEKTARBEIT\SRC\SERVER\PC_REMOTE_CONTROL_SERVER_VS2017\PC_REMOTE_CONTROL_SERVER\WINDOWCONTAINER.CPP
^C:\USERS\SEBAS\DESKTOP\PROJEKTARBEIT\SRC\SERVER\PC_REMOTE_CONTROL_SERVER_VS2017\PC_REMOTE_CONTROL_SERVER\NETWORK.CPP
/c /I"C:\USERS\SEBAS\VCPKG\SCRIPTS\BUILDSYSTEMS\MSBUILD\..\..\..\INSTALLED\X64-WINDOWS\INCLUDE" /ZI /JMC /nologo /W3 /WX- /diagnostics:classic /sdl /Od /D SODIUM_STATIC=1 /D SODIUM_EXPORT= /D _UNICODE /D UNICODE /Gm- /EHsc /RTC1 /MDd /GS /fp:precise /permissive- /Zc:wchar_t /Zc:forScope /Zc:inline /Fo"X64\DEBUG\\" /Fd"X64\DEBUG\VC141.PDB" /Gd /TP /FC C:\USERS\SEBAS\DESKTOP\PROJEKTARBEIT\SRC\SERVER\PC_REMOTE_CONTROL_SERVER_VS2017\PC_REMOTE_CONTROL_SERVER\NETWORK.CPP
^C:\USERS\SEBAS\DESKTOP\PROJEKTARBEIT\SRC\SERVER\PC_REMOTE_CONTROL_SERVER_VS2017\PC_REMOTE_CONTROL_SERVER\ENGINE.CPP
/c /I"C:\USERS\SEBAS\VCPKG\SCRIPTS\BUILDSYSTEMS\MSBUILD\..\..\..\INSTALLED\X64-WINDOWS\INCLUDE" /ZI /JMC /nologo /W3 /WX- /diagnostics:classic /sdl /Od /D SODIUM_STATIC=1 /D SODIUM_EXPORT= /D _UNICODE /D UNICODE /Gm- /EHsc /RTC1 /MDd /GS /fp:precise /permissive- /Zc:wchar_t /Zc:forScope /Zc:inline /Fo"X64\DEBUG\\" /Fd"X64\DEBUG\VC141.PDB" /Gd /TP /FC C:\USERS\SEBAS\DESKTOP\PROJEKTARBEIT\SRC\SERVER\PC_REMOTE_CONTROL_SERVER_VS2017\PC_REMOTE_CONTROL_SERVER\ENGINE.CPP
^C:\USERS\SEBAS\DESKTOP\PROJEKTARBEIT\SRC\SERVER\PC_REMOTE_CONTROL_SERVER_VS2017\PC_REMOTE_CONTROL_SERVER\SOURCE.CPP
/c /I"C:\USERS\SEBAS\VCPKG\SCRIPTS\BUILDSYSTEMS\MSBUILD\..\..\..\INSTALLED\X64-WINDOWS\INCLUDE" /ZI /JMC /nologo /W3 /WX- /diagnostics:classic /sdl /Od /D SODIUM_STATIC=1 /D SODIUM_EXPORT= /D _UNICODE /D UNICODE /Gm- /EHsc /RTC1 /MDd /GS /fp:precise /permissive- /Zc:wchar_t /Zc:forScope /Zc:inline /Fo"X64\DEBUG\\" /Fd"X64\DEBUG\VC141.PDB" /Gd /TP /FC C:\USERS\SEBAS\DESKTOP\PROJEKTARBEIT\SRC\SERVER\PC_REMOTE_CONTROL_SERVER_VS2017\PC_REMOTE_CONTROL_SERVER\SOURCE.CPP
