^C:\USERS\SEBAS\DESKTOP\PROJEKTARBEIT\SRC\SERVER\PC_REMOTE_CONTROL_SERVER_VS2017\PC_REMOTE_CONTROL_SERVER\X64\DEBUG\ENGINE.OBJ|C:\USERS\SEBAS\DESKTOP\PROJEKTARBEIT\SRC\SERVER\PC_REMOTE_CONTROL_SERVER_VS2017\PC_REMOTE_CONTROL_SERVER\X64\DEBUG\ERRORLOGGER.OBJ|C:\USERS\SEBAS\DESKTOP\PROJEKTARBEIT\SRC\SERVER\PC_REMOTE_CONTROL_SERVER_VS2017\PC_REMOTE_CONTROL_SERVER\X64\DEBUG\HASHMAP.OBJ|C:\USERS\SEBAS\DESKTOP\PROJEKTARBEIT\SRC\SERVER\PC_REMOTE_CONTROL_SERVER_VS2017\PC_REMOTE_CONTROL_SERVER\X64\DEBUG\KEYBOARDCLASS.OBJ|C:\USERS\SEBAS\DESKTOP\PROJEKTARBEIT\SRC\SERVER\PC_REMOTE_CONTROL_SERVER_VS2017\PC_REMOTE_CONTROL_SERVER\X64\DEBUG\KEYBOARDEVENT.OBJ|C:\USERS\SEBAS\DESKTOP\PROJEKTARBEIT\SRC\SERVER\PC_REMOTE_CONTROL_SERVER_VS2017\PC_REMOTE_CONTROL_SERVER\X64\DEBUG\MOUSECLASS.OBJ|C:\USERS\SEBAS\DESKTOP\PROJEKTARBEIT\SRC\SERVER\PC_REMOTE_CONTROL_SERVER_VS2017\PC_REMOTE_CONTROL_SERVER\X64\DEBUG\MOUSEEVENT.OBJ|C:\USERS\SEBAS\DESKTOP\PROJEKTARBEIT\SRC\SERVER\PC_REMOTE_CONTROL_SERVER_VS2017\PC_REMOTE_CONTROL_SERVER\X64\DEBUG\NETWORK.OBJ|C:\USERS\SEBAS\DESKTOP\PROJEKTARBEIT\SRC\SERVER\PC_REMOTE_CONTROL_SERVER_VS2017\PC_REMOTE_CONTROL_SERVER\X64\DEBUG\RENDERWINDOW.OBJ|C:\USERS\SEBAS\DESKTOP\PROJEKTARBEIT\SRC\SERVER\PC_REMOTE_CONTROL_SERVER_VS2017\PC_REMOTE_CONTROL_SERVER\X64\DEBUG\SOURCE.OBJ|C:\USERS\SEBAS\DESKTOP\PROJEKTARBEIT\SRC\SERVER\PC_REMOTE_CONTROL_SERVER_VS2017\PC_REMOTE_CONTROL_SERVER\X64\DEBUG\STRINGCONVERTER.OBJ|C:\USERS\SEBAS\DESKTOP\PROJEKTARBEIT\SRC\SERVER\PC_REMOTE_CONTROL_SERVER_VS2017\PC_REMOTE_CONTROL_SERVER\X64\DEBUG\TWEETNACL.OBJ|C:\USERS\SEBAS\DESKTOP\PROJEKTARBEIT\SRC\SERVER\PC_REMOTE_CONTROL_SERVER_VS2017\PC_REMOTE_CONTROL_SERVER\X64\DEBUG\WINDOWCONTAINER.OBJ
C:\USERS\SEBAS\DESKTOP\PROJEKTARBEIT\SRC\SERVER\PC_REMOTE_CONTROL_SERVER_VS2017\X64\DEBUG\PC_REMOTE_CONTROL_SERVER.EXE
C:\USERS\SEBAS\DESKTOP\PROJEKTARBEIT\SRC\SERVER\PC_REMOTE_CONTROL_SERVER_VS2017\X64\DEBUG\PC_REMOTE_CONTROL_SERVER.ILK
C:\USERS\SEBAS\DESKTOP\PROJEKTARBEIT\SRC\SERVER\PC_REMOTE_CONTROL_SERVER_VS2017\X64\DEBUG\PC_REMOTE_CONTROL_SERVER.PDB
