^C:\USERS\SEBAS\DESKTOP\PROJEKTARBEIT\SRC\SERVER\PC_REMOTE_CONTROL_SERVER_VS2017\PC_REMOTE_CONTROL_SERVER\ENGINE.CPP|C:\USERS\SEBAS\DESKTOP\PROJEKTARBEIT\SRC\SERVER\PC_REMOTE_CONTROL_SERVER_VS2017\PC_REMOTE_CONTROL_SERVER\ERRORLOGGER.CPP|C:\USERS\SEBAS\DESKTOP\PROJEKTARBEIT\SRC\SERVER\PC_REMOTE_CONTROL_SERVER_VS2017\PC_REMOTE_CONTROL_SERVER\HASHMAP.CPP|C:\USERS\SEBAS\DESKTOP\PROJEKTARBEIT\SRC\SERVER\PC_REMOTE_CONTROL_SERVER_VS2017\PC_REMOTE_CONTROL_SERVER\KEYBOARDCLASS.CPP|C:\USERS\SEBAS\DESKTOP\PROJEKTARBEIT\SRC\SERVER\PC_REMOTE_CONTROL_SERVER_VS2017\PC_REMOTE_CONTROL_SERVER\KEYBOARDEVENT.CPP|C:\USERS\SEBAS\DESKTOP\PROJEKTARBEIT\SRC\SERVER\PC_REMOTE_CONTROL_SERVER_VS2017\PC_REMOTE_CONTROL_SERVER\MOUSECLASS.CPP|C:\USERS\SEBAS\DESKTOP\PROJEKTARBEIT\SRC\SERVER\PC_REMOTE_CONTROL_SERVER_VS2017\PC_REMOTE_CONTROL_SERVER\MOUSEEVENT.CPP|C:\USERS\SEBAS\DESKTOP\PROJEKTARBEIT\SRC\SERVER\PC_REMOTE_CONTROL_SERVER_VS2017\PC_REMOTE_CONTROL_SERVER\NETWORK.CPP|C:\USERS\SEBAS\DESKTOP\PROJEKTARBEIT\SRC\SERVER\PC_REMOTE_CONTROL_SERVER_VS2017\PC_REMOTE_CONTROL_SERVER\RENDERWINDOW.CPP|C:\USERS\SEBAS\DESKTOP\PROJEKTARBEIT\SRC\SERVER\PC_REMOTE_CONTROL_SERVER_VS2017\PC_REMOTE_CONTROL_SERVER\SOURCE.CPP|C:\USERS\SEBAS\DESKTOP\PROJEKTARBEIT\SRC\SERVER\PC_REMOTE_CONTROL_SERVER_VS2017\PC_REMOTE_CONTROL_SERVER\STRINGCONVERTER.CPP|C:\USERS\SEBAS\DESKTOP\PROJEKTARBEIT\SRC\SERVER\PC_REMOTE_CONTROL_SERVER_VS2017\PC_REMOTE_CONTROL_SERVER\TWEETNACL.CPP|C:\USERS\SEBAS\DESKTOP\PROJEKTARBEIT\SRC\SERVER\PC_REMOTE_CONTROL_SERVER_VS2017\PC_REMOTE_CONTROL_SERVER\WINDOWCONTAINER.CPP
C:\USERS\SEBAS\DESKTOP\PROJEKTARBEIT\SRC\SERVER\PC_REMOTE_CONTROL_SERVER_VS2017\PC_REMOTE_CONTROL_SERVER\DEBUG\VC141.PDB
C:\USERS\SEBAS\DESKTOP\PROJEKTARBEIT\SRC\SERVER\PC_REMOTE_CONTROL_SERVER_VS2017\PC_REMOTE_CONTROL_SERVER\DEBUG\VC141.IDB
C:\USERS\SEBAS\DESKTOP\PROJEKTARBEIT\SRC\SERVER\PC_REMOTE_CONTROL_SERVER_VS2017\PC_REMOTE_CONTROL_SERVER\DEBUG\WINDOWCONTAINER.OBJ
C:\USERS\SEBAS\DESKTOP\PROJEKTARBEIT\SRC\SERVER\PC_REMOTE_CONTROL_SERVER_VS2017\PC_REMOTE_CONTROL_SERVER\DEBUG\TWEETNACL.OBJ
C:\USERS\SEBAS\DESKTOP\PROJEKTARBEIT\SRC\SERVER\PC_REMOTE_CONTROL_SERVER_VS2017\PC_REMOTE_CONTROL_SERVER\DEBUG\STRINGCONVERTER.OBJ
C:\USERS\SEBAS\DESKTOP\PROJEKTARBEIT\SRC\SERVER\PC_REMOTE_CONTROL_SERVER_VS2017\PC_REMOTE_CONTROL_SERVER\DEBUG\SOURCE.OBJ
C:\USERS\SEBAS\DESKTOP\PROJEKTARBEIT\SRC\SERVER\PC_REMOTE_CONTROL_SERVER_VS2017\PC_REMOTE_CONTROL_SERVER\DEBUG\NETWORK.OBJ
C:\USERS\SEBAS\DESKTOP\PROJEKTARBEIT\SRC\SERVER\PC_REMOTE_CONTROL_SERVER_VS2017\PC_REMOTE_CONTROL_SERVER\DEBUG\MOUSEEVENT.OBJ
C:\USERS\SEBAS\DESKTOP\PROJEKTARBEIT\SRC\SERVER\PC_REMOTE_CONTROL_SERVER_VS2017\PC_REMOTE_CONTROL_SERVER\DEBUG\MOUSECLASS.OBJ
C:\USERS\SEBAS\DESKTOP\PROJEKTARBEIT\SRC\SERVER\PC_REMOTE_CONTROL_SERVER_VS2017\PC_REMOTE_CONTROL_SERVER\DEBUG\KEYBOARDEVENT.OBJ
C:\USERS\SEBAS\DESKTOP\PROJEKTARBEIT\SRC\SERVER\PC_REMOTE_CONTROL_SERVER_VS2017\PC_REMOTE_CONTROL_SERVER\DEBUG\KEYBOARDCLASS.OBJ
C:\USERS\SEBAS\DESKTOP\PROJEKTARBEIT\SRC\SERVER\PC_REMOTE_CONTROL_SERVER_VS2017\PC_REMOTE_CONTROL_SERVER\DEBUG\HASHMAP.OBJ
C:\USERS\SEBAS\DESKTOP\PROJEKTARBEIT\SRC\SERVER\PC_REMOTE_CONTROL_SERVER_VS2017\PC_REMOTE_CONTROL_SERVER\DEBUG\ENGINE.OBJ
^C:\USERS\SEBAS\DESKTOP\PROJEKTARBEIT\SRC\SERVER\PC_REMOTE_CONTROL_SERVER_VS2017\PC_REMOTE_CONTROL_SERVER\ENGINE.CPP
C:\USERS\SEBAS\DESKTOP\PROJEKTARBEIT\SRC\SERVER\PC_REMOTE_CONTROL_SERVER_VS2017\PC_REMOTE_CONTROL_SERVER\DEBUG\ENGINE.OBJ
^C:\USERS\SEBAS\DESKTOP\PROJEKTARBEIT\SRC\SERVER\PC_REMOTE_CONTROL_SERVER_VS2017\PC_REMOTE_CONTROL_SERVER\HASHMAP.CPP
C:\USERS\SEBAS\DESKTOP\PROJEKTARBEIT\SRC\SERVER\PC_REMOTE_CONTROL_SERVER_VS2017\PC_REMOTE_CONTROL_SERVER\DEBUG\HASHMAP.OBJ
^C:\USERS\SEBAS\DESKTOP\PROJEKTARBEIT\SRC\SERVER\PC_REMOTE_CONTROL_SERVER_VS2017\PC_REMOTE_CONTROL_SERVER\KEYBOARDCLASS.CPP
C:\USERS\SEBAS\DESKTOP\PROJEKTARBEIT\SRC\SERVER\PC_REMOTE_CONTROL_SERVER_VS2017\PC_REMOTE_CONTROL_SERVER\DEBUG\KEYBOARDCLASS.OBJ
^C:\USERS\SEBAS\DESKTOP\PROJEKTARBEIT\SRC\SERVER\PC_REMOTE_CONTROL_SERVER_VS2017\PC_REMOTE_CONTROL_SERVER\KEYBOARDEVENT.CPP
C:\USERS\SEBAS\DESKTOP\PROJEKTARBEIT\SRC\SERVER\PC_REMOTE_CONTROL_SERVER_VS2017\PC_REMOTE_CONTROL_SERVER\DEBUG\KEYBOARDEVENT.OBJ
^C:\USERS\SEBAS\DESKTOP\PROJEKTARBEIT\SRC\SERVER\PC_REMOTE_CONTROL_SERVER_VS2017\PC_REMOTE_CONTROL_SERVER\MOUSECLASS.CPP
C:\USERS\SEBAS\DESKTOP\PROJEKTARBEIT\SRC\SERVER\PC_REMOTE_CONTROL_SERVER_VS2017\PC_REMOTE_CONTROL_SERVER\DEBUG\MOUSECLASS.OBJ
^C:\USERS\SEBAS\DESKTOP\PROJEKTARBEIT\SRC\SERVER\PC_REMOTE_CONTROL_SERVER_VS2017\PC_REMOTE_CONTROL_SERVER\MOUSEEVENT.CPP
C:\USERS\SEBAS\DESKTOP\PROJEKTARBEIT\SRC\SERVER\PC_REMOTE_CONTROL_SERVER_VS2017\PC_REMOTE_CONTROL_SERVER\DEBUG\MOUSEEVENT.OBJ
^C:\USERS\SEBAS\DESKTOP\PROJEKTARBEIT\SRC\SERVER\PC_REMOTE_CONTROL_SERVER_VS2017\PC_REMOTE_CONTROL_SERVER\NETWORK.CPP
C:\USERS\SEBAS\DESKTOP\PROJEKTARBEIT\SRC\SERVER\PC_REMOTE_CONTROL_SERVER_VS2017\PC_REMOTE_CONTROL_SERVER\DEBUG\NETWORK.OBJ
^C:\USERS\SEBAS\DESKTOP\PROJEKTARBEIT\SRC\SERVER\PC_REMOTE_CONTROL_SERVER_VS2017\PC_REMOTE_CONTROL_SERVER\SOURCE.CPP
C:\USERS\SEBAS\DESKTOP\PROJEKTARBEIT\SRC\SERVER\PC_REMOTE_CONTROL_SERVER_VS2017\PC_REMOTE_CONTROL_SERVER\DEBUG\SOURCE.OBJ
^C:\USERS\SEBAS\DESKTOP\PROJEKTARBEIT\SRC\SERVER\PC_REMOTE_CONTROL_SERVER_VS2017\PC_REMOTE_CONTROL_SERVER\STRINGCONVERTER.CPP
C:\USERS\SEBAS\DESKTOP\PROJEKTARBEIT\SRC\SERVER\PC_REMOTE_CONTROL_SERVER_VS2017\PC_REMOTE_CONTROL_SERVER\DEBUG\STRINGCONVERTER.OBJ
^C:\USERS\SEBAS\DESKTOP\PROJEKTARBEIT\SRC\SERVER\PC_REMOTE_CONTROL_SERVER_VS2017\PC_REMOTE_CONTROL_SERVER\TWEETNACL.CPP
C:\USERS\SEBAS\DESKTOP\PROJEKTARBEIT\SRC\SERVER\PC_REMOTE_CONTROL_SERVER_VS2017\PC_REMOTE_CONTROL_SERVER\DEBUG\TWEETNACL.OBJ
^C:\USERS\SEBAS\DESKTOP\PROJEKTARBEIT\SRC\SERVER\PC_REMOTE_CONTROL_SERVER_VS2017\PC_REMOTE_CONTROL_SERVER\WINDOWCONTAINER.CPP
C:\USERS\SEBAS\DESKTOP\PROJEKTARBEIT\SRC\SERVER\PC_REMOTE_CONTROL_SERVER_VS2017\PC_REMOTE_CONTROL_SERVER\DEBUG\WINDOWCONTAINER.OBJ
