usbd_hid.c:390:16:USBD_HID_Init	24	static
usbd_hid.c:431:16:USBD_HID_DeInit	16	static
usbd_hid.c:457:16:USBD_HID_Setup	32	static
usbd_hid.c:582:9:USBD_HID_SendReport	32	static
usbd_hid.c:608:10:USBD_HID_GetPollingInterval	24	static
usbd_hid.c:637:17:USBD_HID_GetFSCfgDesc	16	static
usbd_hid.c:651:17:USBD_HID_GetHSCfgDesc	16	static
usbd_hid.c:665:17:USBD_HID_GetOtherSpeedCfgDesc	16	static
usbd_hid.c:679:16:USBD_HID_DataIn	16	static
usbd_hid.c:696:17:USBD_HID_GetDeviceQualifierDesc	16	static
