usbd_hid.c:367:16:USBD_HID_Init	24	static
usbd_hid.c:408:16:USBD_HID_DeInit	16	static
usbd_hid.c:434:16:USBD_HID_Setup	32	static
usbd_hid.c:554:9:USBD_HID_SendReport	32	static
usbd_hid.c:576:10:USBD_HID_GetPollingInterval	24	static
usbd_hid.c:605:17:USBD_HID_GetFSCfgDesc	16	static
usbd_hid.c:619:17:USBD_HID_GetHSCfgDesc	16	static
usbd_hid.c:633:17:USBD_HID_GetOtherSpeedCfgDesc	16	static
usbd_hid.c:647:16:USBD_HID_DataIn	16	static
usbd_hid.c:664:17:USBD_HID_GetDeviceQualifierDesc	16	static
